%YAML 1.1
%TAG !u! tag:unity3d.com,2011:
--- !u!114 &11400000
MonoBehaviour:
  m_ObjectHideFlags: 0
  m_CorrespondingSourceObject: {fileID: 0}
  m_PrefabInstance: {fileID: 0}
  m_PrefabAsset: {fileID: 0}
  m_GameObject: {fileID: 0}
  m_Enabled: 1
  m_EditorHideFlags: 0
  m_Script: {fileID: 11500000, guid: bade182451542df41b96d8c583dc1247, type: 3}
  m_Name: Boss Base Stats
  m_EditorClassIdentifier: 
  MaxHP: 10000
  moveSpeed: 1
  JumpCount: 1
  Hazardous: 0
