%YAML 1.1
%TAG !u! tag:unity3d.com,2011:
--- !u!1 &2787012800401640858
GameObject:
  m_ObjectHideFlags: 0
  m_CorrespondingSourceObject: {fileID: 0}
  m_PrefabInstance: {fileID: 0}
  m_PrefabAsset: {fileID: 0}
  serializedVersion: 6
  m_Component:
  - component: {fileID: 3946860844875310943}
  - component: {fileID: 2448702403907634340}
  - component: {fileID: 6325078845395746314}
  m_Layer: 13
  m_Name: Black Box
  m_TagString: Untagged
  m_Icon: {fileID: 0}
  m_NavMeshLayer: 0
  m_StaticEditorFlags: 0
  m_IsActive: 1
--- !u!224 &3946860844875310943
RectTransform:
  m_ObjectHideFlags: 0
  m_CorrespondingSourceObject: {fileID: 0}
  m_PrefabInstance: {fileID: 0}
  m_PrefabAsset: {fileID: 0}
  m_GameObject: {fileID: 2787012800401640858}
  m_LocalRotation: {x: 0, y: 0, z: 0, w: 1}
  m_LocalPosition: {x: 0, y: 0, z: -0}
  m_LocalScale: {x: 1, y: 1, z: 1}
  m_Children:
  - {fileID: 309417450042322405}
  - {fileID: 9088121266062564038}
  m_Father: {fileID: 1112527814862270264}
  m_RootOrder: 0
  m_LocalEulerAnglesHint: {x: 0, y: 0, z: 0}
  m_AnchorMin: {x: 0, y: 0}
  m_AnchorMax: {x: 1, y: 1}
  m_AnchoredPosition: {x: -0.059, y: 0}
  m_SizeDelta: {x: 0, y: 0}
  m_Pivot: {x: 0.5, y: 0.5}
--- !u!222 &2448702403907634340
CanvasRenderer:
  m_ObjectHideFlags: 0
  m_CorrespondingSourceObject: {fileID: 0}
  m_PrefabInstance: {fileID: 0}
  m_PrefabAsset: {fileID: 0}
  m_GameObject: {fileID: 2787012800401640858}
  m_CullTransparentMesh: 0
--- !u!114 &6325078845395746314
MonoBehaviour:
  m_ObjectHideFlags: 0
  m_CorrespondingSourceObject: {fileID: 0}
  m_PrefabInstance: {fileID: 0}
  m_PrefabAsset: {fileID: 0}
  m_GameObject: {fileID: 2787012800401640858}
  m_Enabled: 1
  m_EditorHideFlags: 0
  m_Script: {fileID: 11500000, guid: fe87c0e1cc204ed48ad3b37840f39efc, type: 3}
  m_Name: 
  m_EditorClassIdentifier: 
  m_Material: {fileID: 0}
  m_Color: {r: 0, g: 0, b: 0, a: 0.8}
  m_RaycastTarget: 1
  m_OnCullStateChanged:
    m_PersistentCalls:
      m_Calls: []
  m_Sprite: {fileID: 0}
  m_Type: 0
  m_PreserveAspect: 0
  m_FillCenter: 1
  m_FillMethod: 4
  m_FillAmount: 1
  m_FillClockwise: 1
  m_FillOrigin: 0
  m_UseSpriteMesh: 0
  m_PixelsPerUnitMultiplier: 1
--- !u!1 &3451597976778797118
GameObject:
  m_ObjectHideFlags: 0
  m_CorrespondingSourceObject: {fileID: 0}
  m_PrefabInstance: {fileID: 0}
  m_PrefabAsset: {fileID: 0}
  serializedVersion: 6
  m_Component:
  - component: {fileID: 7980878309309198693}
  - component: {fileID: 3914482203391902886}
  - component: {fileID: 2041854913540775759}
  m_Layer: 13
  m_Name: '[FX] OnJump'
  m_TagString: Untagged
  m_Icon: {fileID: 0}
  m_NavMeshLayer: 0
  m_StaticEditorFlags: 0
  m_IsActive: 1
--- !u!4 &7980878309309198693
Transform:
  m_ObjectHideFlags: 0
  m_CorrespondingSourceObject: {fileID: 0}
  m_PrefabInstance: {fileID: 0}
  m_PrefabAsset: {fileID: 0}
  m_GameObject: {fileID: 3451597976778797118}
  m_LocalRotation: {x: 0.10867817, y: 0.09131226, z: 0.13278913, w: 0.9809272}
  m_LocalPosition: {x: -4.8753242, y: 4.4289637, z: 2.9975502}
  m_LocalScale: {x: 2.736605, y: 2.7366033, z: 2.7366045}
  m_Children: []
  m_Father: {fileID: 8740201301055295567}
  m_RootOrder: 3
  m_LocalEulerAnglesHint: {x: 0, y: 0, z: 0}
--- !u!114 &3914482203391902886
MonoBehaviour:
  m_ObjectHideFlags: 0
  m_CorrespondingSourceObject: {fileID: 0}
  m_PrefabInstance: {fileID: 0}
  m_PrefabAsset: {fileID: 0}
  m_GameObject: {fileID: 3451597976778797118}
  m_Enabled: 1
  m_EditorHideFlags: 0
  m_Script: {fileID: 11500000, guid: 17ea1b4bffc384425908cd16f483660b, type: 3}
  m_Name: 
  m_EditorClassIdentifier: 
  Controller: {fileID: 0}
  ToggleState: 0
  PackageAnchor: {fileID: 0}
  TriggerOnStart: 0
  ToggleOnStart: 0
  AutoOff: 0
  AutoOffTime: 1
  AutoKill: 0
  AutoKillTime: 4
  Timer: 0
  TriggerTest: 0
  ToggleTest: 0
  RefreshSetupTest: 0
  dT: 0
--- !u!114 &2041854913540775759
MonoBehaviour:
  m_ObjectHideFlags: 0
  m_CorrespondingSourceObject: {fileID: 0}
  m_PrefabInstance: {fileID: 0}
  m_PrefabAsset: {fileID: 0}
  m_GameObject: {fileID: 3451597976778797118}
  m_Enabled: 1
  m_EditorHideFlags: 0
  m_Script: {fileID: 11500000, guid: 406a7fc737a7448d5897223da5e3e265, type: 3}
  m_Name: 
  m_EditorClassIdentifier: 
  Controller: {fileID: 3914482203391902886}
  ToggleState: 1
  BaseValue: 0.5
  Style: 2
  Timed_Duration: 0.1
  Decay_DecayRate: 6
  Decay_MaxDuration: 10
  Curve_Curve:
    serializedVersion: 2
    m_Curve:
    - serializedVersion: 3
      time: 0
      value: 0.001213572
      inSlope: 0
      outSlope: 0.016419813
      tangentMode: 1
      weightedMode: 3
      inWeight: 0.33333334
      outWeight: 0.2946225
    - serializedVersion: 3
      time: 0.060624953
      value: 0.39959487
      inSlope: -0.020692065
      outSlope: 0.009420152
      tangentMode: 1
      weightedMode: 3
      inWeight: 0.9593624
      outWeight: 0.18734543
    - serializedVersion: 3
      time: 0.48574495
      value: -0.08152151
      inSlope: -0.016082814
      outSlope: 0.03075714
      tangentMode: 1
      weightedMode: 3
      inWeight: 0.7170774
      outWeight: 0.26669177
    - serializedVersion: 3
      time: 0.76865953
      value: 0
      inSlope: -0.011063216
      outSlope: 0.0070710382
      tangentMode: 1
      weightedMode: 3
      inWeight: 0.6629402
      outWeight: 0.33333334
    m_PreInfinity: 2
    m_PostInfinity: 2
    m_RotationOrder: 4
  Toggle_Easing: 0
  Toggle_EaseIn:
    serializedVersion: 2
    m_Curve: []
    m_PreInfinity: 2
    m_PostInfinity: 2
    m_RotationOrder: 4
  Toggle_EaseOut:
    serializedVersion: 2
    m_Curve: []
    m_PreInfinity: 2
    m_PostInfinity: 2
    m_RotationOrder: 4
  EaseInCurve:
    serializedVersion: 2
    m_Curve:
    - serializedVersion: 3
      time: -0.00069325796
      value: -0.000030439347
      inSlope: 0.1677232
      outSlope: 0.1677232
      tangentMode: 0
      weightedMode: 3
      inWeight: 0
      outWeight: 0.33548796
    - serializedVersion: 3
      time: 0.0038083177
      value: 0.9999696
      inSlope: 0
      outSlope: 0
      tangentMode: 0
      weightedMode: 3
      inWeight: 0.33416334
      outWeight: 0
    m_PreInfinity: 2
    m_PostInfinity: 2
    m_RotationOrder: 4
  WaveFrequency: 0
  InvertX: 1
--- !u!1 &3905896513899805227
GameObject:
  m_ObjectHideFlags: 0
  m_CorrespondingSourceObject: {fileID: 0}
  m_PrefabInstance: {fileID: 0}
  m_PrefabAsset: {fileID: 0}
  serializedVersion: 6
  m_Component:
  - component: {fileID: 2128150994762737723}
  - component: {fileID: 8457110305690514401}
  - component: {fileID: 3790492315191547381}
  m_Layer: 13
  m_Name: Player Icon
  m_TagString: Untagged
  m_Icon: {fileID: 0}
  m_NavMeshLayer: 0
  m_StaticEditorFlags: 0
  m_IsActive: 1
--- !u!224 &2128150994762737723
RectTransform:
  m_ObjectHideFlags: 0
  m_CorrespondingSourceObject: {fileID: 0}
  m_PrefabInstance: {fileID: 0}
  m_PrefabAsset: {fileID: 0}
  m_GameObject: {fileID: 3905896513899805227}
  m_LocalRotation: {x: -0, y: -0, z: -0, w: 1}
  m_LocalPosition: {x: 0, y: 0, z: 0}
  m_LocalScale: {x: -0.75, y: 0.75, z: 1}
  m_Children: []
  m_Father: {fileID: 1683913517020347185}
  m_RootOrder: 0
  m_LocalEulerAnglesHint: {x: 0, y: 0, z: 0}
  m_AnchorMin: {x: 0, y: 0}
  m_AnchorMax: {x: 1, y: 1}
  m_AnchoredPosition: {x: 0, y: 0}
  m_SizeDelta: {x: 0, y: 0}
  m_Pivot: {x: 0.5, y: 0.5}
--- !u!222 &8457110305690514401
CanvasRenderer:
  m_ObjectHideFlags: 0
  m_CorrespondingSourceObject: {fileID: 0}
  m_PrefabInstance: {fileID: 0}
  m_PrefabAsset: {fileID: 0}
  m_GameObject: {fileID: 3905896513899805227}
  m_CullTransparentMesh: 0
--- !u!114 &3790492315191547381
MonoBehaviour:
  m_ObjectHideFlags: 0
  m_CorrespondingSourceObject: {fileID: 0}
  m_PrefabInstance: {fileID: 0}
  m_PrefabAsset: {fileID: 0}
  m_GameObject: {fileID: 3905896513899805227}
  m_Enabled: 1
  m_EditorHideFlags: 0
  m_Script: {fileID: 11500000, guid: fe87c0e1cc204ed48ad3b37840f39efc, type: 3}
  m_Name: 
  m_EditorClassIdentifier: 
  m_Material: {fileID: 0}
  m_Color: {r: 1, g: 1, b: 1, a: 1}
  m_RaycastTarget: 1
  m_OnCullStateChanged:
    m_PersistentCalls:
      m_Calls: []
  m_Sprite: {fileID: 21300000, guid: b9e609b5675bd2d47b200aac598b8480, type: 3}
  m_Type: 0
  m_PreserveAspect: 0
  m_FillCenter: 1
  m_FillMethod: 4
  m_FillAmount: 1
  m_FillClockwise: 1
  m_FillOrigin: 0
  m_UseSpriteMesh: 0
  m_PixelsPerUnitMultiplier: 1
--- !u!1 &4750863554980062150
GameObject:
  m_ObjectHideFlags: 0
  m_CorrespondingSourceObject: {fileID: 0}
  m_PrefabInstance: {fileID: 0}
  m_PrefabAsset: {fileID: 0}
  serializedVersion: 6
  m_Component:
  - component: {fileID: 309417450042322405}
  - component: {fileID: 4603108529174737784}
  - component: {fileID: 8556422533483312258}
  m_Layer: 13
  m_Name: Bar
  m_TagString: Untagged
  m_Icon: {fileID: 0}
  m_NavMeshLayer: 0
  m_StaticEditorFlags: 0
  m_IsActive: 1
--- !u!224 &309417450042322405
RectTransform:
  m_ObjectHideFlags: 0
  m_CorrespondingSourceObject: {fileID: 0}
  m_PrefabInstance: {fileID: 0}
  m_PrefabAsset: {fileID: 0}
  m_GameObject: {fileID: 4750863554980062150}
  m_LocalRotation: {x: -0, y: -0, z: -0, w: 1}
  m_LocalPosition: {x: 0, y: 0, z: 0.000200309}
  m_LocalScale: {x: 1, y: 1, z: 1}
  m_Children: []
  m_Father: {fileID: 3946860844875310943}
  m_RootOrder: 0
  m_LocalEulerAnglesHint: {x: 0, y: 0, z: 0}
  m_AnchorMin: {x: 0.5, y: 0.5}
  m_AnchorMax: {x: 0.5, y: 0.5}
  m_AnchoredPosition: {x: 0.48264998, y: -0.00030005723}
  m_SizeDelta: {x: 0.9647, y: 0.1661}
  m_Pivot: {x: 1, y: 0.5}
--- !u!222 &4603108529174737784
CanvasRenderer:
  m_ObjectHideFlags: 0
  m_CorrespondingSourceObject: {fileID: 0}
  m_PrefabInstance: {fileID: 0}
  m_PrefabAsset: {fileID: 0}
  m_GameObject: {fileID: 4750863554980062150}
  m_CullTransparentMesh: 0
--- !u!114 &8556422533483312258
MonoBehaviour:
  m_ObjectHideFlags: 0
  m_CorrespondingSourceObject: {fileID: 0}
  m_PrefabInstance: {fileID: 0}
  m_PrefabAsset: {fileID: 0}
  m_GameObject: {fileID: 4750863554980062150}
  m_Enabled: 1
  m_EditorHideFlags: 0
  m_Script: {fileID: 11500000, guid: fe87c0e1cc204ed48ad3b37840f39efc, type: 3}
  m_Name: 
  m_EditorClassIdentifier: 
  m_Material: {fileID: 0}
  m_Color: {r: 0, g: 1, b: 0.12585473, a: 0.8}
  m_RaycastTarget: 1
  m_OnCullStateChanged:
    m_PersistentCalls:
      m_Calls: []
  m_Sprite: {fileID: 0}
  m_Type: 0
  m_PreserveAspect: 0
  m_FillCenter: 1
  m_FillMethod: 4
  m_FillAmount: 1
  m_FillClockwise: 1
  m_FillOrigin: 0
  m_UseSpriteMesh: 0
  m_PixelsPerUnitMultiplier: 1
--- !u!1 &5115310835561697154
GameObject:
  m_ObjectHideFlags: 0
  m_CorrespondingSourceObject: {fileID: 0}
  m_PrefabInstance: {fileID: 0}
  m_PrefabAsset: {fileID: 0}
  serializedVersion: 6
  m_Component:
  - component: {fileID: 1112527814862270264}
  - component: {fileID: 1777118918573827125}
  - component: {fileID: 2681320130326806338}
  - component: {fileID: 2091849635063019569}
  - component: {fileID: 9185881449523294080}
  - component: {fileID: 5474593891745969373}
  m_Layer: 13
  m_Name: Health Bar
  m_TagString: Untagged
  m_Icon: {fileID: 0}
  m_NavMeshLayer: 0
  m_StaticEditorFlags: 0
  m_IsActive: 1
--- !u!224 &1112527814862270264
RectTransform:
  m_ObjectHideFlags: 0
  m_CorrespondingSourceObject: {fileID: 0}
  m_PrefabInstance: {fileID: 0}
  m_PrefabAsset: {fileID: 0}
  m_GameObject: {fileID: 5115310835561697154}
  m_LocalRotation: {x: -0.2605508, y: -0.45078343, z: -0.13944255, w: 0.8422965}
  m_LocalPosition: {x: 0, y: 0, z: 0}
  m_LocalScale: {x: 1, y: 1, z: 1}
  m_Children:
  - {fileID: 3946860844875310943}
  m_Father: {fileID: 8740201300939869911}
  m_RootOrder: 1
  m_LocalEulerAnglesHint: {x: 0, y: 0, z: 0}
  m_AnchorMin: {x: 0, y: 0}
  m_AnchorMax: {x: 0, y: 0}
  m_AnchoredPosition: {x: 0, y: 1.6}
  m_SizeDelta: {x: 1, y: 0.2}
  m_Pivot: {x: 0.5, y: 0.5}
--- !u!223 &1777118918573827125
Canvas:
  m_ObjectHideFlags: 0
  m_CorrespondingSourceObject: {fileID: 0}
  m_PrefabInstance: {fileID: 0}
  m_PrefabAsset: {fileID: 0}
  m_GameObject: {fileID: 5115310835561697154}
  m_Enabled: 1
  serializedVersion: 3
  m_RenderMode: 2
  m_Camera: {fileID: 0}
  m_PlaneDistance: 100
  m_PixelPerfect: 0
  m_ReceivesEvents: 1
  m_OverrideSorting: 0
  m_OverridePixelPerfect: 0
  m_SortingBucketNormalizedSize: 0
  m_AdditionalShaderChannelsFlag: 0
  m_SortingLayerID: 0
  m_SortingOrder: 0
  m_TargetDisplay: 0
--- !u!114 &2681320130326806338
MonoBehaviour:
  m_ObjectHideFlags: 0
  m_CorrespondingSourceObject: {fileID: 0}
  m_PrefabInstance: {fileID: 0}
  m_PrefabAsset: {fileID: 0}
  m_GameObject: {fileID: 5115310835561697154}
  m_Enabled: 1
  m_EditorHideFlags: 0
  m_Script: {fileID: 11500000, guid: 0cd44c1031e13a943bb63640046fad76, type: 3}
  m_Name: 
  m_EditorClassIdentifier: 
  m_UiScaleMode: 0
  m_ReferencePixelsPerUnit: 100
  m_ScaleFactor: 1
  m_ReferenceResolution: {x: 800, y: 600}
  m_ScreenMatchMode: 0
  m_MatchWidthOrHeight: 0
  m_PhysicalUnit: 3
  m_FallbackScreenDPI: 96
  m_DefaultSpriteDPI: 96
  m_DynamicPixelsPerUnit: 1
--- !u!114 &2091849635063019569
MonoBehaviour:
  m_ObjectHideFlags: 0
  m_CorrespondingSourceObject: {fileID: 0}
  m_PrefabInstance: {fileID: 0}
  m_PrefabAsset: {fileID: 0}
  m_GameObject: {fileID: 5115310835561697154}
  m_Enabled: 1
  m_EditorHideFlags: 0
  m_Script: {fileID: 11500000, guid: dc42784cf147c0c48a680349fa168899, type: 3}
  m_Name: 
  m_EditorClassIdentifier: 
  m_IgnoreReversedGraphics: 1
  m_BlockingObjects: 0
  m_BlockingMask:
    serializedVersion: 2
    m_Bits: 3895
--- !u!114 &9185881449523294080
MonoBehaviour:
  m_ObjectHideFlags: 0
  m_CorrespondingSourceObject: {fileID: 0}
  m_PrefabInstance: {fileID: 0}
  m_PrefabAsset: {fileID: 0}
  m_GameObject: {fileID: 5115310835561697154}
  m_Enabled: 1
  m_EditorHideFlags: 0
  m_Script: {fileID: 11500000, guid: 78066e23cd75728499187089aeff7d88, type: 3}
  m_Name: 
  m_EditorClassIdentifier: 
--- !u!114 &5474593891745969373
MonoBehaviour:
  m_ObjectHideFlags: 0
  m_CorrespondingSourceObject: {fileID: 0}
  m_PrefabInstance: {fileID: 0}
  m_PrefabAsset: {fileID: 0}
  m_GameObject: {fileID: 5115310835561697154}
  m_Enabled: 1
  m_EditorHideFlags: 0
  m_Script: {fileID: 11500000, guid: ad272c853c0266240a248d9ea5f8ab89, type: 3}
  m_Name: 
  m_EditorClassIdentifier: 
  Gradient:
    serializedVersion: 2
    key0: {r: 0.4245283, g: 0, b: 0, a: 1}
    key1: {r: 0.8301887, g: 0, b: 0.015616471, a: 1}
    key2: {r: 1, g: 0.6486546, b: 0, a: 0}
    key3: {r: 0.95237184, g: 1, b: 0, a: 0}
    key4: {r: 0.13948512, g: 1, b: 0, a: 0}
    key5: {r: 0, g: 0, b: 0, a: 0}
    key6: {r: 0, g: 0, b: 0, a: 0}
    key7: {r: 0, g: 0, b: 0, a: 0}
    ctime0: 0
    ctime1: 8155
    ctime2: 19720
    ctime3: 33212
    ctime4: 65535
    ctime5: 0
    ctime6: 0
    ctime7: 0
    atime0: 0
    atime1: 65535
    atime2: 0
    atime3: 0
    atime4: 0
    atime5: 0
    atime6: 0
    atime7: 0
    m_Mode: 0
    m_NumColorKeys: 5
    m_NumAlphaKeys: 2
  BarImage: {fileID: 8556422533483312258}
  BarRT: {fileID: 309417450042322405}
--- !u!1 &5161767145221176407
GameObject:
  m_ObjectHideFlags: 0
  m_CorrespondingSourceObject: {fileID: 0}
  m_PrefabInstance: {fileID: 0}
  m_PrefabAsset: {fileID: 0}
  serializedVersion: 6
  m_Component:
  - component: {fileID: 4804114562636608099}
  - component: {fileID: 2014587660994250208}
  - component: {fileID: 5900664252890448362}
  - component: {fileID: 5594391593611461714}
  m_Layer: 13
  m_Name: '[FX] Damage Shake'
  m_TagString: Untagged
  m_Icon: {fileID: 0}
  m_NavMeshLayer: 0
  m_StaticEditorFlags: 0
  m_IsActive: 1
--- !u!4 &4804114562636608099
Transform:
  m_ObjectHideFlags: 0
  m_CorrespondingSourceObject: {fileID: 0}
  m_PrefabInstance: {fileID: 0}
  m_PrefabAsset: {fileID: 0}
  m_GameObject: {fileID: 5161767145221176407}
  m_LocalRotation: {x: 0.10867817, y: 0.09131226, z: 0.13278913, w: 0.9809272}
  m_LocalPosition: {x: -4.8753242, y: 4.4289637, z: 2.9975502}
  m_LocalScale: {x: 2.736605, y: 2.7366033, z: 2.7366045}
  m_Children: []
  m_Father: {fileID: 8740201301055295567}
  m_RootOrder: 1
  m_LocalEulerAnglesHint: {x: 0, y: 0, z: 0}
--- !u!114 &2014587660994250208
MonoBehaviour:
  m_ObjectHideFlags: 0
  m_CorrespondingSourceObject: {fileID: 0}
  m_PrefabInstance: {fileID: 0}
  m_PrefabAsset: {fileID: 0}
  m_GameObject: {fileID: 5161767145221176407}
  m_Enabled: 1
  m_EditorHideFlags: 0
  m_Script: {fileID: 11500000, guid: 17ea1b4bffc384425908cd16f483660b, type: 3}
  m_Name: 
  m_EditorClassIdentifier: 
  Controller: {fileID: 0}
  ToggleState: 0
  PackageAnchor: {fileID: 8740201301055295568}
  TriggerOnStart: 0
  ToggleOnStart: 0
  AutoOff: 0
  AutoOffTime: 1
  AutoKill: 0
  AutoKillTime: 4
  Timer: 0
  TriggerTest: 0
  ToggleTest: 0
  RefreshSetupTest: 0
  dT: 0
--- !u!114 &5900664252890448362
MonoBehaviour:
  m_ObjectHideFlags: 0
  m_CorrespondingSourceObject: {fileID: 0}
  m_PrefabInstance: {fileID: 0}
  m_PrefabAsset: {fileID: 0}
  m_GameObject: {fileID: 5161767145221176407}
  m_Enabled: 1
  m_EditorHideFlags: 0
  m_Script: {fileID: 11500000, guid: 406a7fc737a7448d5897223da5e3e265, type: 3}
  m_Name: 
  m_EditorClassIdentifier: 
  Controller: {fileID: 2014587660994250208}
  ToggleState: 1
  BaseValue: 0.5
  Style: 2
  Timed_Duration: 0.1
  Decay_DecayRate: 6
  Decay_MaxDuration: 10
  Curve_Curve:
    serializedVersion: 2
    m_Curve:
    - serializedVersion: 3
      time: 0
      value: 0.001213572
      inSlope: 0
      outSlope: 0.016419813
      tangentMode: 1
      weightedMode: 3
      inWeight: 0.33333334
      outWeight: 0.2946225
    - serializedVersion: 3
      time: 0.060624953
      value: -0.32457784
      inSlope: -0.020692065
      outSlope: 0.009420152
      tangentMode: 1
      weightedMode: 3
      inWeight: 0.9593624
      outWeight: 0.18734543
    - serializedVersion: 3
      time: 0.48574495
      value: 0.10277517
      inSlope: -0.016082814
      outSlope: 0.03075714
      tangentMode: 1
      weightedMode: 3
      inWeight: 0.7170774
      outWeight: 0.26669177
    - serializedVersion: 3
      time: 0.76865953
      value: 0
      inSlope: -0.011063216
      outSlope: 0.0070710382
      tangentMode: 1
      weightedMode: 3
      inWeight: 0.6629402
      outWeight: 0.33333334
    m_PreInfinity: 2
    m_PostInfinity: 2
    m_RotationOrder: 4
  Toggle_Easing: 0
  Toggle_EaseIn:
    serializedVersion: 2
    m_Curve: []
    m_PreInfinity: 2
    m_PostInfinity: 2
    m_RotationOrder: 4
  Toggle_EaseOut:
    serializedVersion: 2
    m_Curve: []
    m_PreInfinity: 2
    m_PostInfinity: 2
    m_RotationOrder: 4
  EaseInCurve:
    serializedVersion: 2
    m_Curve:
    - serializedVersion: 3
      time: -0.00069325796
      value: -0.000030439347
      inSlope: 0.1677232
      outSlope: 0.1677232
      tangentMode: 0
      weightedMode: 3
      inWeight: 0
      outWeight: 0.33548796
    - serializedVersion: 3
      time: 0.0038083177
      value: 0.9999696
      inSlope: 0
      outSlope: 0
      tangentMode: 0
      weightedMode: 3
      inWeight: 0.33416334
      outWeight: 0
    m_PreInfinity: 2
    m_PostInfinity: 2
    m_RotationOrder: 4
  WaveFrequency: 0
  InvertX: 1
--- !u!114 &5594391593611461714
MonoBehaviour:
  m_ObjectHideFlags: 0
  m_CorrespondingSourceObject: {fileID: 0}
  m_PrefabInstance: {fileID: 0}
  m_PrefabAsset: {fileID: 0}
  m_GameObject: {fileID: 5161767145221176407}
  m_Enabled: 1
  m_EditorHideFlags: 0
  m_Script: {fileID: 11500000, guid: 773e32268bf734c9e9fba8bc912569b4, type: 3}
  m_Name: 
  m_EditorClassIdentifier: 
  Controller: {fileID: 0}
  ToggleState: 0
  BaseValue: 1
  Style: 0
  Timed_Duration: 0.1
  Decay_DecayRate: 12
  Decay_MaxDuration: 10
  Curve_Curve:
    serializedVersion: 2
    m_Curve: []
    m_PreInfinity: 2
    m_PostInfinity: 2
    m_RotationOrder: 4
  Toggle_Easing: 0
  Toggle_EaseIn:
    serializedVersion: 2
    m_Curve: []
    m_PreInfinity: 2
    m_PostInfinity: 2
    m_RotationOrder: 4
  Toggle_EaseOut:
    serializedVersion: 2
    m_Curve: []
    m_PreInfinity: 2
    m_PostInfinity: 2
    m_RotationOrder: 4
  TranslationMultiplier: 0.16
  RotationMultiplier: 16
  PerlinSpeed: 14
  ValueCurve:
    serializedVersion: 2
    m_Curve:
    - serializedVersion: 3
      time: 0
      value: 1
      inSlope: 0
      outSlope: 0
      tangentMode: 0
      weightedMode: 0
      inWeight: 0
      outWeight: 0
    - serializedVersion: 3
      time: 1
      value: 1
      inSlope: 0
      outSlope: 0
      tangentMode: 0
      weightedMode: 0
      inWeight: 0
      outWeight: 0
    m_PreInfinity: 2
    m_PostInfinity: 2
    m_RotationOrder: 4
--- !u!1 &5578434668805836181
GameObject:
  m_ObjectHideFlags: 0
  m_CorrespondingSourceObject: {fileID: 0}
  m_PrefabInstance: {fileID: 0}
  m_PrefabAsset: {fileID: 0}
  serializedVersion: 6
  m_Component:
  - component: {fileID: 5568491446922705294}
  - component: {fileID: 6734439968226344614}
  - component: {fileID: 317861401828171976}
  m_Layer: 13
  m_Name: '[FX] OnSpawn'
  m_TagString: Untagged
  m_Icon: {fileID: 0}
  m_NavMeshLayer: 0
  m_StaticEditorFlags: 0
  m_IsActive: 1
--- !u!4 &5568491446922705294
Transform:
  m_ObjectHideFlags: 0
  m_CorrespondingSourceObject: {fileID: 0}
  m_PrefabInstance: {fileID: 0}
  m_PrefabAsset: {fileID: 0}
  m_GameObject: {fileID: 5578434668805836181}
  m_LocalRotation: {x: 0.10867817, y: 0.09131226, z: 0.13278913, w: 0.9809272}
  m_LocalPosition: {x: -4.8753242, y: 4.4289637, z: 2.9975502}
  m_LocalScale: {x: 2.736605, y: 2.7366033, z: 2.7366045}
  m_Children: []
  m_Father: {fileID: 8740201301055295567}
  m_RootOrder: 6
  m_LocalEulerAnglesHint: {x: 0, y: 0, z: 0}
--- !u!114 &6734439968226344614
MonoBehaviour:
  m_ObjectHideFlags: 0
  m_CorrespondingSourceObject: {fileID: 0}
  m_PrefabInstance: {fileID: 0}
  m_PrefabAsset: {fileID: 0}
  m_GameObject: {fileID: 5578434668805836181}
  m_Enabled: 1
  m_EditorHideFlags: 0
  m_Script: {fileID: 11500000, guid: 17ea1b4bffc384425908cd16f483660b, type: 3}
  m_Name: 
  m_EditorClassIdentifier: 
  Controller: {fileID: 0}
  ToggleState: 0
  PackageAnchor: {fileID: 8740201300939869919}
  TriggerOnStart: 1
  ToggleOnStart: 0
  AutoOff: 0
  AutoOffTime: 1
  AutoKill: 0
  AutoKillTime: 4
  Timer: 0
  TriggerTest: 0
  ToggleTest: 0
  RefreshSetupTest: 0
  dT: 0
--- !u!114 &317861401828171976
MonoBehaviour:
  m_ObjectHideFlags: 0
  m_CorrespondingSourceObject: {fileID: 0}
  m_PrefabInstance: {fileID: 0}
  m_PrefabAsset: {fileID: 0}
  m_GameObject: {fileID: 5578434668805836181}
  m_Enabled: 1
  m_EditorHideFlags: 0
  m_Script: {fileID: 11500000, guid: 406a7fc737a7448d5897223da5e3e265, type: 3}
  m_Name: 
  m_EditorClassIdentifier: 
  Controller: {fileID: 6734439968226344614}
  ToggleState: 1
  BaseValue: 0.5
  Style: 2
  Timed_Duration: 0.1
  Decay_DecayRate: 6
  Decay_MaxDuration: 10
  Curve_Curve:
    serializedVersion: 2
    m_Curve:
    - serializedVersion: 3
      time: 0
      value: -1
      inSlope: 0
      outSlope: 0.00000034080267
      tangentMode: 1
      weightedMode: 3
      inWeight: 0.33333334
      outWeight: 0.3700153
    - serializedVersion: 3
      time: 0.47266933
      value: 0.11538491
      inSlope: -0.79960716
      outSlope: -0.836869
      tangentMode: 1
      weightedMode: 3
      inWeight: 0.5409167
      outWeight: 0.23018847
    - serializedVersion: 3
      time: 1.5053022
      value: 0
      inSlope: -0.00080901117
      outSlope: 0.0070710382
      tangentMode: 1
      weightedMode: 3
      inWeight: 0.5253412
      outWeight: 0.33333334
    m_PreInfinity: 2
    m_PostInfinity: 2
    m_RotationOrder: 4
  Toggle_Easing: 0
  Toggle_EaseIn:
    serializedVersion: 2
    m_Curve: []
    m_PreInfinity: 2
    m_PostInfinity: 2
    m_RotationOrder: 4
  Toggle_EaseOut:
    serializedVersion: 2
    m_Curve: []
    m_PreInfinity: 2
    m_PostInfinity: 2
    m_RotationOrder: 4
  EaseInCurve:
    serializedVersion: 2
    m_Curve:
    - serializedVersion: 3
      time: 0
      value: 1
      inSlope: 0
      outSlope: 0
      tangentMode: 0
      weightedMode: 0
      inWeight: 0.33333334
      outWeight: 0.33333334
    - serializedVersion: 3
      time: 1
      value: 1
      inSlope: 0
      outSlope: 0
      tangentMode: 0
      weightedMode: 0
      inWeight: 0.33333334
      outWeight: 0.33333334
    m_PreInfinity: 2
    m_PostInfinity: 2
    m_RotationOrder: 4
  WaveFrequency: 0
  InvertX: 0
--- !u!1 &5665330405457592204
GameObject:
  m_ObjectHideFlags: 0
  m_CorrespondingSourceObject: {fileID: 0}
  m_PrefabInstance: {fileID: 0}
  m_PrefabAsset: {fileID: 0}
  serializedVersion: 6
  m_Component:
  - component: {fileID: 1683913517020347185}
  - component: {fileID: 3642726732441743851}
  - component: {fileID: 2381157571045246290}
  m_Layer: 13
  m_Name: Player Color
  m_TagString: Untagged
  m_Icon: {fileID: 0}
  m_NavMeshLayer: 0
  m_StaticEditorFlags: 0
  m_IsActive: 1
--- !u!224 &1683913517020347185
RectTransform:
  m_ObjectHideFlags: 0
  m_CorrespondingSourceObject: {fileID: 0}
  m_PrefabInstance: {fileID: 0}
  m_PrefabAsset: {fileID: 0}
  m_GameObject: {fileID: 5665330405457592204}
  m_LocalRotation: {x: -0, y: -0, z: -0, w: 1}
  m_LocalPosition: {x: 0, y: 0, z: -0.000000074505806}
  m_LocalScale: {x: 0.85, y: 0.85, z: 1}
  m_Children:
  - {fileID: 2128150994762737723}
  m_Father: {fileID: 9088121266062564038}
  m_RootOrder: 0
  m_LocalEulerAnglesHint: {x: 0, y: 0, z: 0}
  m_AnchorMin: {x: 0, y: 0}
  m_AnchorMax: {x: 1, y: 1}
  m_AnchoredPosition: {x: 0, y: 0}
  m_SizeDelta: {x: 0, y: 0}
  m_Pivot: {x: 0.5, y: 0.5}
--- !u!222 &3642726732441743851
CanvasRenderer:
  m_ObjectHideFlags: 0
  m_CorrespondingSourceObject: {fileID: 0}
  m_PrefabInstance: {fileID: 0}
  m_PrefabAsset: {fileID: 0}
  m_GameObject: {fileID: 5665330405457592204}
  m_CullTransparentMesh: 0
--- !u!114 &2381157571045246290
MonoBehaviour:
  m_ObjectHideFlags: 0
  m_CorrespondingSourceObject: {fileID: 0}
  m_PrefabInstance: {fileID: 0}
  m_PrefabAsset: {fileID: 0}
  m_GameObject: {fileID: 5665330405457592204}
  m_Enabled: 1
  m_EditorHideFlags: 0
  m_Script: {fileID: 11500000, guid: fe87c0e1cc204ed48ad3b37840f39efc, type: 3}
  m_Name: 
  m_EditorClassIdentifier: 
  m_Material: {fileID: 0}
  m_Color: {r: 1, g: 0, b: 0, a: 0.72156864}
  m_RaycastTarget: 1
  m_OnCullStateChanged:
    m_PersistentCalls:
      m_Calls: []
  m_Sprite: {fileID: 21300000, guid: ad96f3f760d841c4381af313660757ce, type: 3}
  m_Type: 0
  m_PreserveAspect: 0
  m_FillCenter: 1
  m_FillMethod: 4
  m_FillAmount: 1
  m_FillClockwise: 1
  m_FillOrigin: 0
  m_UseSpriteMesh: 0
  m_PixelsPerUnitMultiplier: 1
--- !u!1 &6663680241256665451
GameObject:
  m_ObjectHideFlags: 0
  m_CorrespondingSourceObject: {fileID: 0}
  m_PrefabInstance: {fileID: 0}
  m_PrefabAsset: {fileID: 0}
  serializedVersion: 6
  m_Component:
  - component: {fileID: 8916096099744860952}
  - component: {fileID: 4994592093008033027}
  - component: {fileID: 6062970460712480533}
  m_Layer: 13
  m_Name: '[FX] Damage Color'
  m_TagString: Untagged
  m_Icon: {fileID: 0}
  m_NavMeshLayer: 0
  m_StaticEditorFlags: 0
  m_IsActive: 1
--- !u!4 &8916096099744860952
Transform:
  m_ObjectHideFlags: 0
  m_CorrespondingSourceObject: {fileID: 0}
  m_PrefabInstance: {fileID: 0}
  m_PrefabAsset: {fileID: 0}
  m_GameObject: {fileID: 6663680241256665451}
  m_LocalRotation: {x: 0.10867817, y: 0.09131226, z: 0.13278913, w: 0.9809272}
  m_LocalPosition: {x: -4.8753242, y: 4.4289637, z: 2.9975502}
  m_LocalScale: {x: 2.736605, y: 2.7366033, z: 2.7366045}
  m_Children: []
  m_Father: {fileID: 8740201301055295567}
  m_RootOrder: 0
  m_LocalEulerAnglesHint: {x: 0, y: 0, z: 0}
--- !u!114 &4994592093008033027
MonoBehaviour:
  m_ObjectHideFlags: 0
  m_CorrespondingSourceObject: {fileID: 0}
  m_PrefabInstance: {fileID: 0}
  m_PrefabAsset: {fileID: 0}
  m_GameObject: {fileID: 6663680241256665451}
  m_Enabled: 1
  m_EditorHideFlags: 0
  m_Script: {fileID: 11500000, guid: 17ea1b4bffc384425908cd16f483660b, type: 3}
  m_Name: 
  m_EditorClassIdentifier: 
  Controller: {fileID: 0}
  ToggleState: 0
  PackageAnchor: {fileID: 8740201302660425400}
  TriggerOnStart: 0
  ToggleOnStart: 0
  AutoOff: 0
  AutoOffTime: 1
  AutoKill: 0
  AutoKillTime: 4
  Timer: 0
  TriggerTest: 0
  ToggleTest: 0
  RefreshSetupTest: 0
  dT: 0
--- !u!114 &6062970460712480533
MonoBehaviour:
  m_ObjectHideFlags: 0
  m_CorrespondingSourceObject: {fileID: 0}
  m_PrefabInstance: {fileID: 0}
  m_PrefabAsset: {fileID: 0}
  m_GameObject: {fileID: 6663680241256665451}
  m_Enabled: 1
  m_EditorHideFlags: 0
  m_Script: {fileID: 11500000, guid: 68acc5a5fb6e74515ba7613c46cf46fb, type: 3}
  m_Name: 
  m_EditorClassIdentifier: 
  Controller: {fileID: 0}
  ToggleState: 0
  BaseValue: 3
  Style: 0
  Timed_Duration: 0.1
  Decay_DecayRate: 12
  Decay_MaxDuration: 10
  Curve_Curve:
    serializedVersion: 2
    m_Curve: []
    m_PreInfinity: 2
    m_PostInfinity: 2
    m_RotationOrder: 4
  Toggle_Easing: 0
  Toggle_EaseIn:
    serializedVersion: 2
    m_Curve: []
    m_PreInfinity: 2
    m_PostInfinity: 2
    m_RotationOrder: 4
  Toggle_EaseOut:
    serializedVersion: 2
    m_Curve: []
    m_PreInfinity: 2
    m_PostInfinity: 2
    m_RotationOrder: 4
  Color: {r: 1, g: 0, b: 0, a: 1}
--- !u!1 &7656201323301356816
GameObject:
  m_ObjectHideFlags: 0
  m_CorrespondingSourceObject: {fileID: 0}
  m_PrefabInstance: {fileID: 0}
  m_PrefabAsset: {fileID: 0}
  serializedVersion: 6
  m_Component:
  - component: {fileID: 2394361706364098950}
  - component: {fileID: 6007045863463937884}
  - component: {fileID: 3111335336856366731}
  - component: {fileID: 2564294105092961614}
  m_Layer: 13
  m_Name: '[FX] OnLand'
  m_TagString: Untagged
  m_Icon: {fileID: 0}
  m_NavMeshLayer: 0
  m_StaticEditorFlags: 0
  m_IsActive: 1
--- !u!4 &2394361706364098950
Transform:
  m_ObjectHideFlags: 0
  m_CorrespondingSourceObject: {fileID: 0}
  m_PrefabInstance: {fileID: 0}
  m_PrefabAsset: {fileID: 0}
  m_GameObject: {fileID: 7656201323301356816}
  m_LocalRotation: {x: 0.10867817, y: 0.09131226, z: 0.13278913, w: 0.9809272}
  m_LocalPosition: {x: -4.8753242, y: 4.4289637, z: 2.9975502}
  m_LocalScale: {x: 2.736605, y: 2.7366033, z: 2.7366045}
  m_Children: []
  m_Father: {fileID: 8740201301055295567}
  m_RootOrder: 2
  m_LocalEulerAnglesHint: {x: 0, y: 0, z: 0}
--- !u!114 &6007045863463937884
MonoBehaviour:
  m_ObjectHideFlags: 0
  m_CorrespondingSourceObject: {fileID: 0}
  m_PrefabInstance: {fileID: 0}
  m_PrefabAsset: {fileID: 0}
  m_GameObject: {fileID: 7656201323301356816}
  m_Enabled: 1
  m_EditorHideFlags: 0
  m_Script: {fileID: 11500000, guid: 17ea1b4bffc384425908cd16f483660b, type: 3}
  m_Name: 
  m_EditorClassIdentifier: 
  Controller: {fileID: 0}
  ToggleState: 0
  PackageAnchor: {fileID: 0}
  TriggerOnStart: 0
  ToggleOnStart: 0
  AutoOff: 0
  AutoOffTime: 1
  AutoKill: 0
  AutoKillTime: 4
  Timer: 0
  TriggerTest: 0
  ToggleTest: 0
  RefreshSetupTest: 0
  dT: 0
--- !u!114 &3111335336856366731
MonoBehaviour:
  m_ObjectHideFlags: 0
  m_CorrespondingSourceObject: {fileID: 0}
  m_PrefabInstance: {fileID: 0}
  m_PrefabAsset: {fileID: 0}
  m_GameObject: {fileID: 7656201323301356816}
  m_Enabled: 1
  m_EditorHideFlags: 0
  m_Script: {fileID: 11500000, guid: 406a7fc737a7448d5897223da5e3e265, type: 3}
  m_Name: 
  m_EditorClassIdentifier: 
  Controller: {fileID: 6007045863463937884}
  ToggleState: 1
  BaseValue: 0.5
  Style: 2
  Timed_Duration: 0.1
  Decay_DecayRate: 6
  Decay_MaxDuration: 10
  Curve_Curve:
    serializedVersion: 2
    m_Curve:
    - serializedVersion: 3
      time: 0
      value: 0.001213572
      inSlope: 0
      outSlope: 0.016419813
      tangentMode: 1
      weightedMode: 3
      inWeight: 0.33333334
      outWeight: 0.2946225
    - serializedVersion: 3
      time: 0.060624953
      value: -0.40689316
      inSlope: -0.020692065
      outSlope: 0.009420152
      tangentMode: 1
      weightedMode: 3
      inWeight: 0.9593624
      outWeight: 0.18734543
    - serializedVersion: 3
      time: 0.48574495
      value: 0.08138485
      inSlope: -0.016082814
      outSlope: 0.03075714
      tangentMode: 1
      weightedMode: 3
      inWeight: 0.7170774
      outWeight: 0.26669177
    - serializedVersion: 3
      time: 0.76865953
      value: 0
      inSlope: -0.011063216
      outSlope: 0.0070710382
      tangentMode: 1
      weightedMode: 3
      inWeight: 0.6629402
      outWeight: 0.33333334
    m_PreInfinity: 2
    m_PostInfinity: 2
    m_RotationOrder: 4
  Toggle_Easing: 0
  Toggle_EaseIn:
    serializedVersion: 2
    m_Curve: []
    m_PreInfinity: 2
    m_PostInfinity: 2
    m_RotationOrder: 4
  Toggle_EaseOut:
    serializedVersion: 2
    m_Curve: []
    m_PreInfinity: 2
    m_PostInfinity: 2
    m_RotationOrder: 4
  EaseInCurve:
    serializedVersion: 2
    m_Curve:
    - serializedVersion: 3
      time: -0.00069325796
      value: -0.000030439347
      inSlope: 0.1677232
      outSlope: 0.1677232
      tangentMode: 0
      weightedMode: 3
      inWeight: 0
      outWeight: 0.33548796
    - serializedVersion: 3
      time: 0.0038083177
      value: 0.9999696
      inSlope: 0
      outSlope: 0
      tangentMode: 0
      weightedMode: 3
      inWeight: 0.33416334
      outWeight: 0
    m_PreInfinity: 2
    m_PostInfinity: 2
    m_RotationOrder: 4
  WaveFrequency: 0
  InvertX: 1
--- !u!114 &2564294105092961614
MonoBehaviour:
  m_ObjectHideFlags: 0
  m_CorrespondingSourceObject: {fileID: 0}
  m_PrefabInstance: {fileID: 0}
  m_PrefabAsset: {fileID: 0}
  m_GameObject: {fileID: 7656201323301356816}
  m_Enabled: 1
  m_EditorHideFlags: 0
  m_Script: {fileID: 11500000, guid: 773e32268bf734c9e9fba8bc912569b4, type: 3}
  m_Name: 
  m_EditorClassIdentifier: 
  Controller: {fileID: 0}
  ToggleState: 0
  BaseValue: 1
  Style: 0
  Timed_Duration: 0.1
  Decay_DecayRate: 8
  Decay_MaxDuration: 10
  Curve_Curve:
    serializedVersion: 2
    m_Curve: []
    m_PreInfinity: 2
    m_PostInfinity: 2
    m_RotationOrder: 4
  Toggle_Easing: 0
  Toggle_EaseIn:
    serializedVersion: 2
    m_Curve: []
    m_PreInfinity: 2
    m_PostInfinity: 2
    m_RotationOrder: 4
  Toggle_EaseOut:
    serializedVersion: 2
    m_Curve: []
    m_PreInfinity: 2
    m_PostInfinity: 2
    m_RotationOrder: 4
  TranslationMultiplier: 5
  RotationMultiplier: 0
  PerlinSpeed: 10
  ValueCurve:
    serializedVersion: 2
    m_Curve:
    - serializedVersion: 3
      time: 0
      value: 1
      inSlope: 0
      outSlope: 0
      tangentMode: 0
      weightedMode: 0
      inWeight: 0
      outWeight: 0
    - serializedVersion: 3
      time: 1
      value: 1
      inSlope: 0
      outSlope: 0
      tangentMode: 0
      weightedMode: 0
      inWeight: 0
      outWeight: 0
    m_PreInfinity: 2
    m_PostInfinity: 2
    m_RotationOrder: 4
--- !u!1 &7714514776906585210
GameObject:
  m_ObjectHideFlags: 0
  m_CorrespondingSourceObject: {fileID: 0}
  m_PrefabInstance: {fileID: 0}
  m_PrefabAsset: {fileID: 0}
  serializedVersion: 6
  m_Component:
  - component: {fileID: 9088121266062564038}
  - component: {fileID: 7780054161970032651}
  - component: {fileID: 3814125017940017423}
  m_Layer: 13
  m_Name: Player Icon Ring
  m_TagString: Untagged
  m_Icon: {fileID: 0}
  m_NavMeshLayer: 0
  m_StaticEditorFlags: 0
  m_IsActive: 1
--- !u!224 &9088121266062564038
RectTransform:
  m_ObjectHideFlags: 0
  m_CorrespondingSourceObject: {fileID: 0}
  m_PrefabInstance: {fileID: 0}
  m_PrefabAsset: {fileID: 0}
  m_GameObject: {fileID: 7714514776906585210}
  m_LocalRotation: {x: -0, y: -0, z: -0, w: 1}
  m_LocalPosition: {x: 0, y: 0, z: 0}
  m_LocalScale: {x: 1, y: 1, z: 1}
  m_Children:
  - {fileID: 1683913517020347185}
  m_Father: {fileID: 3946860844875310943}
  m_RootOrder: 1
  m_LocalEulerAnglesHint: {x: 0, y: 0, z: 0}
  m_AnchorMin: {x: 0, y: 0}
  m_AnchorMax: {x: 1, y: 1}
  m_AnchoredPosition: {x: 0.512, y: -0}
  m_SizeDelta: {x: -0.6757, y: 0.1006}
  m_Pivot: {x: 0.5, y: 0.5}
--- !u!222 &7780054161970032651
CanvasRenderer:
  m_ObjectHideFlags: 0
  m_CorrespondingSourceObject: {fileID: 0}
  m_PrefabInstance: {fileID: 0}
  m_PrefabAsset: {fileID: 0}
  m_GameObject: {fileID: 7714514776906585210}
  m_CullTransparentMesh: 0
--- !u!114 &3814125017940017423
MonoBehaviour:
  m_ObjectHideFlags: 0
  m_CorrespondingSourceObject: {fileID: 0}
  m_PrefabInstance: {fileID: 0}
  m_PrefabAsset: {fileID: 0}
  m_GameObject: {fileID: 7714514776906585210}
  m_Enabled: 1
  m_EditorHideFlags: 0
  m_Script: {fileID: 11500000, guid: fe87c0e1cc204ed48ad3b37840f39efc, type: 3}
  m_Name: 
  m_EditorClassIdentifier: 
  m_Material: {fileID: 0}
  m_Color: {r: 0, g: 0, b: 0, a: 0.9882353}
  m_RaycastTarget: 1
  m_OnCullStateChanged:
    m_PersistentCalls:
      m_Calls: []
  m_Sprite: {fileID: 21300000, guid: ad96f3f760d841c4381af313660757ce, type: 3}
  m_Type: 0
  m_PreserveAspect: 0
  m_FillCenter: 1
  m_FillMethod: 4
  m_FillAmount: 1
  m_FillClockwise: 1
  m_FillOrigin: 0
  m_UseSpriteMesh: 0
  m_PixelsPerUnitMultiplier: 1
--- !u!1 &8740201300722208040
GameObject:
  m_ObjectHideFlags: 0
  m_CorrespondingSourceObject: {fileID: 0}
  m_PrefabInstance: {fileID: 0}
  m_PrefabAsset: {fileID: 0}
  serializedVersion: 6
  m_Component:
  - component: {fileID: 8740201300722208039}
  - component: {fileID: 8740201300722208037}
  - component: {fileID: 8740201300722208038}
  m_Layer: 13
  m_Name: Shadowcaster
  m_TagString: Untagged
  m_Icon: {fileID: 0}
  m_NavMeshLayer: 0
  m_StaticEditorFlags: 40
  m_IsActive: 1
--- !u!4 &8740201300722208039
Transform:
  m_ObjectHideFlags: 0
  m_CorrespondingSourceObject: {fileID: 0}
  m_PrefabInstance: {fileID: 0}
  m_PrefabAsset: {fileID: 0}
  m_GameObject: {fileID: 8740201300722208040}
  m_LocalRotation: {x: -0.2520429, y: -0.36816752, z: 0.10439958, w: 0.8888351}
  m_LocalPosition: {x: -0.053000107, y: -0.0030000545, z: -0.17600012}
  m_LocalScale: {x: 2.46402, y: 2.46402, z: 2.46402}
  m_Children: []
  m_Father: {fileID: 8740201301055295567}
  m_RootOrder: 4
  m_LocalEulerAnglesHint: {x: 0, y: 0, z: 0}
--- !u!33 &8740201300722208037
MeshFilter:
  m_ObjectHideFlags: 0
  m_CorrespondingSourceObject: {fileID: 0}
  m_PrefabInstance: {fileID: 0}
  m_PrefabAsset: {fileID: 0}
  m_GameObject: {fileID: 8740201300722208040}
  m_Mesh: {fileID: 10207, guid: 0000000000000000e000000000000000, type: 0}
--- !u!23 &8740201300722208038
MeshRenderer:
  m_ObjectHideFlags: 0
  m_CorrespondingSourceObject: {fileID: 0}
  m_PrefabInstance: {fileID: 0}
  m_PrefabAsset: {fileID: 0}
  m_GameObject: {fileID: 8740201300722208040}
  m_Enabled: 1
  m_CastShadows: 3
  m_ReceiveShadows: 1
  m_DynamicOccludee: 1
  m_MotionVectors: 1
  m_LightProbeUsage: 1
  m_ReflectionProbeUsage: 1
  m_RenderingLayerMask: 1
  m_RendererPriority: 0
  m_Materials:
  - {fileID: 2100000, guid: 31321ba15b8f8eb4c954353edc038b1d, type: 2}
  m_StaticBatchInfo:
    firstSubMesh: 0
    subMeshCount: 0
  m_StaticBatchRoot: {fileID: 0}
  m_ProbeAnchor: {fileID: 0}
  m_LightProbeVolumeOverride: {fileID: 0}
  m_ScaleInLightmap: 1
  m_ReceiveGI: 1
  m_PreserveUVs: 0
  m_IgnoreNormalsForChartDetection: 0
  m_ImportantGI: 0
  m_StitchLightmapSeams: 1
  m_SelectedEditorRenderState: 3
  m_MinimumChartSize: 4
  m_AutoUVMaxDistance: 0.5
  m_AutoUVMaxAngle: 89
  m_LightmapParameters: {fileID: 0}
  m_SortingLayerID: 0
  m_SortingLayer: 0
  m_SortingOrder: 0
--- !u!1 &8740201300939869919
GameObject:
  m_ObjectHideFlags: 0
  m_CorrespondingSourceObject: {fileID: 0}
  m_PrefabInstance: {fileID: 0}
  m_PrefabAsset: {fileID: 0}
  serializedVersion: 6
  m_Component:
  - component: {fileID: 8740201300939869911}
  - component: {fileID: 8740201300939869912}
  - component: {fileID: 8740201300939869917}
  - component: {fileID: 8740201300939869916}
  - component: {fileID: 3258047467667024283}
  - component: {fileID: 371908361}
  - component: {fileID: 3982826673123898288}
  - component: {fileID: 5953073158763881246}
<<<<<<< HEAD
<<<<<<< HEAD
  - component: {fileID: 108226046576213247}
=======
  - component: {fileID: 2082286541715786202}
>>>>>>> origin/side-branch-for-nov-19
=======
  - component: {fileID: 2082286541715786202}
  - component: {fileID: 520238879501065433}
>>>>>>> origin/side-branch-for-nov-19
  m_Layer: 13
  m_Name: Skeleton
  m_TagString: Enemy
  m_Icon: {fileID: 0}
  m_NavMeshLayer: 0
  m_StaticEditorFlags: 0
  m_IsActive: 1
--- !u!4 &8740201300939869911
Transform:
  m_ObjectHideFlags: 0
  m_CorrespondingSourceObject: {fileID: 0}
  m_PrefabInstance: {fileID: 0}
  m_PrefabAsset: {fileID: 0}
  m_GameObject: {fileID: 8740201300939869919}
  m_LocalRotation: {x: 0, y: 0, z: 0, w: 1}
  m_LocalPosition: {x: 5, y: 0, z: -10}
  m_LocalScale: {x: 1, y: 1, z: 1}
  m_Children:
  - {fileID: 8740201302494980508}
  - {fileID: 1112527814862270264}
  - {fileID: 2183651893479366078}
  m_Father: {fileID: 0}
  m_RootOrder: 0
  m_LocalEulerAnglesHint: {x: 0, y: 0, z: 0}
--- !u!33 &8740201300939869912
MeshFilter:
  m_ObjectHideFlags: 0
  m_CorrespondingSourceObject: {fileID: 0}
  m_PrefabInstance: {fileID: 0}
  m_PrefabAsset: {fileID: 0}
  m_GameObject: {fileID: 8740201300939869919}
  m_Mesh: {fileID: 10208, guid: 0000000000000000e000000000000000, type: 0}
--- !u!195 &8740201300939869917
NavMeshAgent:
  m_ObjectHideFlags: 0
  m_CorrespondingSourceObject: {fileID: 0}
  m_PrefabInstance: {fileID: 0}
  m_PrefabAsset: {fileID: 0}
  m_GameObject: {fileID: 8740201300939869919}
  m_Enabled: 1
  m_AgentTypeID: 0
  m_Radius: 0.5
  m_Speed: 5
  m_Acceleration: 100
  avoidancePriority: 50
  m_AngularSpeed: 120
  m_StoppingDistance: 1
  m_AutoTraverseOffMeshLink: 1
  m_AutoBraking: 1
  m_AutoRepath: 1
  m_Height: 1
  m_BaseOffset: 0
  m_WalkableMask: 4294967295
  m_ObstacleAvoidanceType: 3
--- !u!54 &8740201300939869916
Rigidbody:
  m_ObjectHideFlags: 0
  m_CorrespondingSourceObject: {fileID: 0}
  m_PrefabInstance: {fileID: 0}
  m_PrefabAsset: {fileID: 0}
  m_GameObject: {fileID: 8740201300939869919}
  serializedVersion: 2
  m_Mass: 1
  m_Drag: 0
  m_AngularDrag: 0.05
  m_UseGravity: 1
  m_IsKinematic: 0
  m_Interpolate: 0
  m_Constraints: 112
  m_CollisionDetection: 0
--- !u!114 &3258047467667024283
MonoBehaviour:
  m_ObjectHideFlags: 0
  m_CorrespondingSourceObject: {fileID: 0}
  m_PrefabInstance: {fileID: 0}
  m_PrefabAsset: {fileID: 0}
  m_GameObject: {fileID: 8740201300939869919}
  m_Enabled: 1
  m_EditorHideFlags: 0
  m_Script: {fileID: 11500000, guid: a2119afd921981b43844ca8b652fd14b, type: 3}
  m_Name: 
  m_EditorClassIdentifier: 
  NavMeshAgent: {fileID: 8740201300939869917}
  EntityController: {fileID: 5953073158763881246}
--- !u!95 &371908361
Animator:
  serializedVersion: 3
  m_ObjectHideFlags: 0
  m_CorrespondingSourceObject: {fileID: 0}
  m_PrefabInstance: {fileID: 0}
  m_PrefabAsset: {fileID: 0}
  m_GameObject: {fileID: 8740201300939869919}
  m_Enabled: 1
  m_Avatar: {fileID: 0}
  m_Controller: {fileID: 9100000, guid: 940c214e47cee214da098d05e531da85, type: 2}
  m_CullingMode: 0
  m_UpdateMode: 0
  m_ApplyRootMotion: 0
  m_LinearVelocityBlending: 0
  m_WarningMessage: 
  m_HasTransformHierarchy: 1
  m_AllowConstantClipSamplingOptimization: 1
  m_KeepAnimatorControllerStateOnDisable: 0
--- !u!114 &3982826673123898288
MonoBehaviour:
  m_ObjectHideFlags: 0
  m_CorrespondingSourceObject: {fileID: 0}
  m_PrefabInstance: {fileID: 0}
  m_PrefabAsset: {fileID: 0}
  m_GameObject: {fileID: 8740201300939869919}
  m_Enabled: 1
  m_EditorHideFlags: 0
  m_Script: {fileID: 11500000, guid: d2c07280602cdc148a9efec81ca30b92, type: 3}
  m_Name: 
  m_EditorClassIdentifier: 
  gravityScale: 1
--- !u!114 &5953073158763881246
MonoBehaviour:
  m_ObjectHideFlags: 0
  m_CorrespondingSourceObject: {fileID: 0}
  m_PrefabInstance: {fileID: 0}
  m_PrefabAsset: {fileID: 0}
  m_GameObject: {fileID: 8740201300939869919}
  m_Enabled: 1
  m_EditorHideFlags: 0
  m_Script: {fileID: 11500000, guid: cb757a76a64061e4fb6906c4b9a7a7d8, type: 3}
  m_Name: 
  m_EditorClassIdentifier: 
  BaseStats: {fileID: 11400000, guid: 5085437034fd00c4684d7557449e7b89, type: 2}
  healthBar: {fileID: 5474593891745969373}
  ActiveAttack: {fileID: 8814148202683479199}
  JumpStrengthOverTime:
    serializedVersion: 2
    m_Curve: []
    m_PreInfinity: 2
    m_PostInfinity: 2
    m_RotationOrder: 4
  JumpStrengthInitial: 1.5
  GravNormal: 8
  GravJumping: 5
  Animations: {fileID: 3592306212289764536}
  SpecialAnimatorLeft: {fileID: 0}
  SpecialAnimatorRight: {fileID: 0}
  Hazard_TickTime: 0.5
  Hazard_SafetyTime: 0.1
  DOT_TickTime: 0.5
  LeftSpecial: {fileID: 0}
  RightSpecial: {fileID: 0}
<<<<<<< HEAD
<<<<<<< HEAD
--- !u!114 &108226046576213247
=======
--- !u!114 &2082286541715786202
>>>>>>> origin/side-branch-for-nov-19
=======
--- !u!114 &2082286541715786202
>>>>>>> origin/side-branch-for-nov-19
MonoBehaviour:
  m_ObjectHideFlags: 0
  m_CorrespondingSourceObject: {fileID: 0}
  m_PrefabInstance: {fileID: 0}
  m_PrefabAsset: {fileID: 0}
  m_GameObject: {fileID: 8740201300939869919}
  m_Enabled: 1
  m_EditorHideFlags: 0
<<<<<<< HEAD
<<<<<<< HEAD
  m_Script: {fileID: 11500000, guid: 917be7054605fb4428b0f25f687b531f, type: 3}
=======
  m_Script: {fileID: 11500000, guid: c03aca536ba007b4a81f6fff7a9e8ce8, type: 3}
>>>>>>> origin/side-branch-for-nov-19
=======
  m_Script: {fileID: 11500000, guid: c03aca536ba007b4a81f6fff7a9e8ce8, type: 3}
>>>>>>> origin/side-branch-for-nov-19
  m_Name: 
  m_EditorClassIdentifier: 
--- !u!65 &520238879501065433
BoxCollider:
  m_ObjectHideFlags: 0
  m_CorrespondingSourceObject: {fileID: 0}
  m_PrefabInstance: {fileID: 0}
  m_PrefabAsset: {fileID: 0}
  m_GameObject: {fileID: 8740201300939869919}
  m_Material: {fileID: 0}
  m_IsTrigger: 0
  m_Enabled: 1
  serializedVersion: 2
  m_Size: {x: 1, y: 1, z: 1}
  m_Center: {x: 0, y: 0.5, z: 0}
--- !u!1 &8740201301055295568
GameObject:
  m_ObjectHideFlags: 0
  m_CorrespondingSourceObject: {fileID: 0}
  m_PrefabInstance: {fileID: 0}
  m_PrefabAsset: {fileID: 0}
  serializedVersion: 6
  m_Component:
  - component: {fileID: 8740201301055295567}
  m_Layer: 13
  m_Name: FX Blending Layer
  m_TagString: Untagged
  m_Icon: {fileID: 0}
  m_NavMeshLayer: 0
  m_StaticEditorFlags: 0
  m_IsActive: 1
--- !u!4 &8740201301055295567
Transform:
  m_ObjectHideFlags: 0
  m_CorrespondingSourceObject: {fileID: 0}
  m_PrefabInstance: {fileID: 0}
  m_PrefabAsset: {fileID: 0}
  m_GameObject: {fileID: 8740201301055295568}
  m_LocalRotation: {x: 0.12513281, y: 0.8211935, z: 0.52059805, w: -0.19738501}
  m_LocalPosition: {x: 0, y: 0, z: 0}
  m_LocalScale: {x: 1, y: 1, z: 1}
  m_Children:
  - {fileID: 8916096099744860952}
  - {fileID: 4804114562636608099}
  - {fileID: 2394361706364098950}
  - {fileID: 7980878309309198693}
  - {fileID: 8740201300722208039}
  - {fileID: 8740201302183072520}
  - {fileID: 5568491446922705294}
  - {fileID: 8740201302660425399}
  m_Father: {fileID: 8740201301854654992}
  m_RootOrder: 0
  m_LocalEulerAnglesHint: {x: 0, y: 0, z: 0}
--- !u!1 &8740201301854654993
GameObject:
  m_ObjectHideFlags: 0
  m_CorrespondingSourceObject: {fileID: 0}
  m_PrefabInstance: {fileID: 0}
  m_PrefabAsset: {fileID: 0}
  serializedVersion: 6
  m_Component:
  - component: {fileID: 8740201301854654992}
  - component: {fileID: 1426822305}
  - component: {fileID: 3592306212289764536}
  m_Layer: 13
  m_Name: GFX
  m_TagString: Player
  m_Icon: {fileID: 0}
  m_NavMeshLayer: 0
  m_StaticEditorFlags: 0
  m_IsActive: 1
--- !u!4 &8740201301854654992
Transform:
  m_ObjectHideFlags: 0
  m_CorrespondingSourceObject: {fileID: 0}
  m_PrefabInstance: {fileID: 0}
  m_PrefabAsset: {fileID: 0}
  m_GameObject: {fileID: 8740201301854654993}
  m_LocalRotation: {x: -0, y: -0, z: -0, w: 1}
  m_LocalPosition: {x: 0, y: 0.2, z: 0}
  m_LocalScale: {x: 0.36541653, y: 0.36541653, z: 0.36541653}
  m_Children:
  - {fileID: 8740201301055295567}
  m_Father: {fileID: 8740201302494980508}
  m_RootOrder: 0
  m_LocalEulerAnglesHint: {x: 0, y: 0, z: 0}
--- !u!212 &1426822305
SpriteRenderer:
  m_ObjectHideFlags: 0
  m_CorrespondingSourceObject: {fileID: 0}
  m_PrefabInstance: {fileID: 0}
  m_PrefabAsset: {fileID: 0}
  m_GameObject: {fileID: 8740201301854654993}
  m_Enabled: 1
  m_CastShadows: 0
  m_ReceiveShadows: 0
  m_DynamicOccludee: 1
  m_MotionVectors: 1
  m_LightProbeUsage: 1
  m_ReflectionProbeUsage: 1
  m_RenderingLayerMask: 1
  m_RendererPriority: 0
  m_Materials:
  - {fileID: 10754, guid: 0000000000000000f000000000000000, type: 0}
  m_StaticBatchInfo:
    firstSubMesh: 0
    subMeshCount: 0
  m_StaticBatchRoot: {fileID: 0}
  m_ProbeAnchor: {fileID: 0}
  m_LightProbeVolumeOverride: {fileID: 0}
  m_ScaleInLightmap: 1
  m_ReceiveGI: 1
  m_PreserveUVs: 0
  m_IgnoreNormalsForChartDetection: 0
  m_ImportantGI: 0
  m_StitchLightmapSeams: 1
  m_SelectedEditorRenderState: 0
  m_MinimumChartSize: 4
  m_AutoUVMaxDistance: 0.5
  m_AutoUVMaxAngle: 89
  m_LightmapParameters: {fileID: 0}
  m_SortingLayerID: 0
  m_SortingLayer: 0
  m_SortingOrder: 0
  m_Sprite: {fileID: 0}
  m_Color: {r: 1, g: 1, b: 1, a: 1}
  m_FlipX: 0
  m_FlipY: 0
  m_DrawMode: 0
  m_Size: {x: 6.93, y: 5.69}
  m_AdaptiveModeThreshold: 0.5
  m_SpriteTileMode: 0
  m_WasSpriteAssigned: 0
  m_MaskInteraction: 0
  m_SpriteSortPoint: 0
--- !u!114 &3592306212289764536
MonoBehaviour:
  m_ObjectHideFlags: 0
  m_CorrespondingSourceObject: {fileID: 0}
  m_PrefabInstance: {fileID: 0}
  m_PrefabAsset: {fileID: 0}
  m_GameObject: {fileID: 8740201301854654993}
  m_Enabled: 1
  m_EditorHideFlags: 0
  m_Script: {fileID: 11500000, guid: 42a194f8972d2004ca0e4a06bdb0ce71, type: 3}
  m_Name: 
  m_EditorClassIdentifier: 
  FxBlendingObject: {fileID: 8740201301055295568}
  JumpFX: {fileID: 3914482203391902886}
  TakeDamageFX:
  - {fileID: 4994592093008033027}
  - {fileID: 2014587660994250208}
--- !u!1 &8740201302183072521
GameObject:
  m_ObjectHideFlags: 0
  m_CorrespondingSourceObject: {fileID: 0}
  m_PrefabInstance: {fileID: 0}
  m_PrefabAsset: {fileID: 0}
  serializedVersion: 6
  m_Component:
  - component: {fileID: 8740201302183072520}
  - component: {fileID: 8740201302183072518}
  - component: {fileID: 8740201302183072519}
  m_Layer: 13
  m_Name: Shadowcaster
  m_TagString: Untagged
  m_Icon: {fileID: 0}
  m_NavMeshLayer: 0
  m_StaticEditorFlags: 40
  m_IsActive: 1
--- !u!4 &8740201302183072520
Transform:
  m_ObjectHideFlags: 0
  m_CorrespondingSourceObject: {fileID: 0}
  m_PrefabInstance: {fileID: 0}
  m_PrefabAsset: {fileID: 0}
  m_GameObject: {fileID: 8740201302183072521}
  m_LocalRotation: {x: -0.2520429, y: -0.36816752, z: 0.10439958, w: 0.8888351}
  m_LocalPosition: {x: -0.05, y: -0.64, z: 0.13}
  m_LocalScale: {x: 2.3359601, y: 2.497328, z: 1.834663}
  m_Children: []
  m_Father: {fileID: 8740201301055295567}
  m_RootOrder: 5
  m_LocalEulerAnglesHint: {x: 0, y: 0, z: 0}
--- !u!33 &8740201302183072518
MeshFilter:
  m_ObjectHideFlags: 0
  m_CorrespondingSourceObject: {fileID: 0}
  m_PrefabInstance: {fileID: 0}
  m_PrefabAsset: {fileID: 0}
  m_GameObject: {fileID: 8740201302183072521}
  m_Mesh: {fileID: 10207, guid: 0000000000000000e000000000000000, type: 0}
--- !u!23 &8740201302183072519
MeshRenderer:
  m_ObjectHideFlags: 0
  m_CorrespondingSourceObject: {fileID: 0}
  m_PrefabInstance: {fileID: 0}
  m_PrefabAsset: {fileID: 0}
  m_GameObject: {fileID: 8740201302183072521}
  m_Enabled: 1
  m_CastShadows: 3
  m_ReceiveShadows: 1
  m_DynamicOccludee: 1
  m_MotionVectors: 1
  m_LightProbeUsage: 1
  m_ReflectionProbeUsage: 1
  m_RenderingLayerMask: 1
  m_RendererPriority: 0
  m_Materials:
  - {fileID: 2100000, guid: 31321ba15b8f8eb4c954353edc038b1d, type: 2}
  m_StaticBatchInfo:
    firstSubMesh: 0
    subMeshCount: 0
  m_StaticBatchRoot: {fileID: 0}
  m_ProbeAnchor: {fileID: 0}
  m_LightProbeVolumeOverride: {fileID: 0}
  m_ScaleInLightmap: 1
  m_ReceiveGI: 1
  m_PreserveUVs: 0
  m_IgnoreNormalsForChartDetection: 0
  m_ImportantGI: 0
  m_StitchLightmapSeams: 1
  m_SelectedEditorRenderState: 3
  m_MinimumChartSize: 4
  m_AutoUVMaxDistance: 0.5
  m_AutoUVMaxAngle: 89
  m_LightmapParameters: {fileID: 0}
  m_SortingLayerID: 0
  m_SortingLayer: 0
  m_SortingOrder: 0
--- !u!1 &8740201302494980509
GameObject:
  m_ObjectHideFlags: 0
  m_CorrespondingSourceObject: {fileID: 0}
  m_PrefabInstance: {fileID: 0}
  m_PrefabAsset: {fileID: 0}
  serializedVersion: 6
  m_Component:
  - component: {fileID: 8740201302494980508}
  m_Layer: 13
  m_Name: Enemy (1)
  m_TagString: Untagged
  m_Icon: {fileID: 0}
  m_NavMeshLayer: 0
  m_StaticEditorFlags: 0
  m_IsActive: 1
--- !u!4 &8740201302494980508
Transform:
  m_ObjectHideFlags: 0
  m_CorrespondingSourceObject: {fileID: 0}
  m_PrefabInstance: {fileID: 0}
  m_PrefabAsset: {fileID: 0}
  m_GameObject: {fileID: 8740201302494980509}
  m_LocalRotation: {x: -0, y: -0, z: -0, w: 1}
  m_LocalPosition: {x: 0, y: 0.451, z: 0}
  m_LocalScale: {x: 1, y: 1, z: 1}
  m_Children:
  - {fileID: 8740201301854654992}
  m_Father: {fileID: 8740201300939869911}
  m_RootOrder: 0
  m_LocalEulerAnglesHint: {x: 0, y: 0, z: 0}
--- !u!1 &8740201302660425400
GameObject:
  m_ObjectHideFlags: 0
  m_CorrespondingSourceObject: {fileID: 0}
  m_PrefabInstance: {fileID: 0}
  m_PrefabAsset: {fileID: 0}
  serializedVersion: 6
  m_Component:
  - component: {fileID: 8740201302660425399}
  - component: {fileID: 449270484}
  - component: {fileID: 449270483}
  m_Layer: 13
  m_Name: Sprite
  m_TagString: Untagged
  m_Icon: {fileID: 0}
  m_NavMeshLayer: 0
  m_StaticEditorFlags: 0
  m_IsActive: 1
--- !u!4 &8740201302660425399
Transform:
  m_ObjectHideFlags: 0
  m_CorrespondingSourceObject: {fileID: 0}
  m_PrefabInstance: {fileID: 0}
  m_PrefabAsset: {fileID: 0}
  m_GameObject: {fileID: 8740201302660425400}
  m_LocalRotation: {x: -0.15566881, y: -0.46801668, z: -0.5821875, w: -0.6463632}
  m_LocalPosition: {x: 0, y: 0, z: 0}
  m_LocalScale: {x: 1, y: 1, z: 1}
  m_Children: []
  m_Father: {fileID: 8740201301055295567}
  m_RootOrder: 7
  m_LocalEulerAnglesHint: {x: 0, y: 0, z: 0}
--- !u!212 &449270484
SpriteRenderer:
  m_ObjectHideFlags: 0
  m_CorrespondingSourceObject: {fileID: 0}
  m_PrefabInstance: {fileID: 0}
  m_PrefabAsset: {fileID: 0}
  m_GameObject: {fileID: 8740201302660425400}
  m_Enabled: 1
  m_CastShadows: 0
  m_ReceiveShadows: 0
  m_DynamicOccludee: 1
  m_MotionVectors: 1
  m_LightProbeUsage: 1
  m_ReflectionProbeUsage: 1
  m_RenderingLayerMask: 1
  m_RendererPriority: 0
  m_Materials:
  - {fileID: 10754, guid: 0000000000000000f000000000000000, type: 0}
  m_StaticBatchInfo:
    firstSubMesh: 0
    subMeshCount: 0
  m_StaticBatchRoot: {fileID: 0}
  m_ProbeAnchor: {fileID: 0}
  m_LightProbeVolumeOverride: {fileID: 0}
  m_ScaleInLightmap: 1
  m_ReceiveGI: 1
  m_PreserveUVs: 0
  m_IgnoreNormalsForChartDetection: 0
  m_ImportantGI: 0
  m_StitchLightmapSeams: 1
  m_SelectedEditorRenderState: 0
  m_MinimumChartSize: 4
  m_AutoUVMaxDistance: 0.5
  m_AutoUVMaxAngle: 89
  m_LightmapParameters: {fileID: 0}
  m_SortingLayerID: 0
  m_SortingLayer: 0
  m_SortingOrder: 0
  m_Sprite: {fileID: 21300000, guid: 0c8a75a3d06a4ce43bf44fa157f46a1d, type: 3}
  m_Color: {r: 1, g: 1, b: 1, a: 1}
  m_FlipX: 0
  m_FlipY: 0
  m_DrawMode: 0
  m_Size: {x: 5.8, y: 5.09}
  m_AdaptiveModeThreshold: 0.5
  m_SpriteTileMode: 0
  m_WasSpriteAssigned: 1
  m_MaskInteraction: 0
  m_SpriteSortPoint: 0
--- !u!114 &449270483
MonoBehaviour:
  m_ObjectHideFlags: 0
  m_CorrespondingSourceObject: {fileID: 0}
  m_PrefabInstance: {fileID: 0}
  m_PrefabAsset: {fileID: 0}
  m_GameObject: {fileID: 8740201302660425400}
  m_Enabled: 1
  m_EditorHideFlags: 0
  m_Script: {fileID: 11500000, guid: 78066e23cd75728499187089aeff7d88, type: 3}
  m_Name: 
  m_EditorClassIdentifier: 
--- !u!1001 &243890378940484932
PrefabInstance:
  m_ObjectHideFlags: 0
  serializedVersion: 2
  m_Modification:
    m_TransformParent: {fileID: 8740201300939869911}
    m_Modifications:
    - target: {fileID: 980461754401721460, guid: 505a9f8143a6a9d4a86f341cb0e3e462,
        type: 3}
      propertyPath: m_Name
      value: '[Attack] Cannon'
      objectReference: {fileID: 0}
    - target: {fileID: 2103069778662936826, guid: 505a9f8143a6a9d4a86f341cb0e3e462,
        type: 3}
      propertyPath: m_LocalPosition.x
      value: 0
      objectReference: {fileID: 0}
    - target: {fileID: 2103069778662936826, guid: 505a9f8143a6a9d4a86f341cb0e3e462,
        type: 3}
      propertyPath: m_LocalPosition.y
      value: 0
      objectReference: {fileID: 0}
    - target: {fileID: 2103069778662936826, guid: 505a9f8143a6a9d4a86f341cb0e3e462,
        type: 3}
      propertyPath: m_LocalPosition.z
      value: 0
      objectReference: {fileID: 0}
    - target: {fileID: 2103069778662936826, guid: 505a9f8143a6a9d4a86f341cb0e3e462,
        type: 3}
      propertyPath: m_LocalRotation.x
      value: 0
      objectReference: {fileID: 0}
    - target: {fileID: 2103069778662936826, guid: 505a9f8143a6a9d4a86f341cb0e3e462,
        type: 3}
      propertyPath: m_LocalRotation.y
      value: 0
      objectReference: {fileID: 0}
    - target: {fileID: 2103069778662936826, guid: 505a9f8143a6a9d4a86f341cb0e3e462,
        type: 3}
      propertyPath: m_LocalRotation.z
      value: 0
      objectReference: {fileID: 0}
    - target: {fileID: 2103069778662936826, guid: 505a9f8143a6a9d4a86f341cb0e3e462,
        type: 3}
      propertyPath: m_LocalRotation.w
      value: 1
      objectReference: {fileID: 0}
    - target: {fileID: 2103069778662936826, guid: 505a9f8143a6a9d4a86f341cb0e3e462,
        type: 3}
      propertyPath: m_RootOrder
      value: 2
      objectReference: {fileID: 0}
    - target: {fileID: 2103069778662936826, guid: 505a9f8143a6a9d4a86f341cb0e3e462,
        type: 3}
      propertyPath: m_LocalEulerAnglesHint.x
      value: 0
      objectReference: {fileID: 0}
    - target: {fileID: 2103069778662936826, guid: 505a9f8143a6a9d4a86f341cb0e3e462,
        type: 3}
      propertyPath: m_LocalEulerAnglesHint.y
      value: 0
      objectReference: {fileID: 0}
    - target: {fileID: 2103069778662936826, guid: 505a9f8143a6a9d4a86f341cb0e3e462,
        type: 3}
      propertyPath: m_LocalEulerAnglesHint.z
      value: 0
      objectReference: {fileID: 0}
    - target: {fileID: 8732580929756379611, guid: 505a9f8143a6a9d4a86f341cb0e3e462,
        type: 3}
      propertyPath: FireRate
      value: 0.33
      objectReference: {fileID: 0}
    m_RemovedComponents: []
  m_SourcePrefab: {fileID: 100100000, guid: 505a9f8143a6a9d4a86f341cb0e3e462, type: 3}
--- !u!4 &2183651893479366078 stripped
Transform:
  m_CorrespondingSourceObject: {fileID: 2103069778662936826, guid: 505a9f8143a6a9d4a86f341cb0e3e462,
    type: 3}
  m_PrefabInstance: {fileID: 243890378940484932}
  m_PrefabAsset: {fileID: 0}
--- !u!114 &8814148202683479199 stripped
MonoBehaviour:
  m_CorrespondingSourceObject: {fileID: 8732580929756379611, guid: 505a9f8143a6a9d4a86f341cb0e3e462,
    type: 3}
  m_PrefabInstance: {fileID: 243890378940484932}
  m_PrefabAsset: {fileID: 0}
  m_GameObject: {fileID: 0}
  m_Enabled: 1
  m_EditorHideFlags: 0
  m_Script: {fileID: 11500000, guid: deed39adc18b3ac47b9a5429a697cb93, type: 3}
  m_Name: 
  m_EditorClassIdentifier: 
