%YAML 1.1
%TAG !u! tag:unity3d.com,2011:
--- !u!78 &1
TagManager:
  serializedVersion: 2
  tags:
  - Enemy
  - target
  layers:
  - Default
  - TransparentFX
  - Ignore Raycast
  - 
  - Water
  - UI
  - 
  - 
  - PostProcessing
  - Terrain
  - NO CLOIDE WITH TERAIN
  - Terrain, Murder
  - Bullet
  - Entity
  - Bullet, Entity Collision Only
  - Entity, Murder
  - Bullet Deleter
  - Entity, Only
  - 
  - 
  - 
  - 
  - 
  - 
  - 
  - 
  - 
  - 
  - 
  - 
  - 
  - 
  m_SortingLayers:
  - name: Default
    uniqueID: 0
    locked: 0
